Date : 2022-09-13 22:31:38
Directory : /home/kjoh/dmf-framework
Total : 0 files,  0 codes, 0 comments, 0 blanks, all 0 lines

Languages
+----------+------------+------------+------------+------------+------------+
| language | files      | code       | comment    | blank      | total      |
+----------+------------+------------+------------+------------+------------+
+----------+------------+------------+------------+------------+------------+

Directories
+------+------------+------------+------------+------------+------------+
| path | files      | code       | comment    | blank      | total      |
+------+------------+------------+------------+------------+------------+
+------+------------+------------+------------+------------+------------+

Files
+----------+----------+------------+------------+------------+------------+
| filename | language | code       | comment    | blank      | total      |
+----------+----------+------------+------------+------------+------------+
| Total    |          |          0 |          0 |          0 |          0 |
+----------+----------+------------+------------+------------+------------+